(module SSOP-16_LTC4006 (layer F.Cu) (tedit 0)
  (attr smd)
  (fp_text reference REF** (at -3.8475 0 90) (layer F.SilkS)
    (effects (font (size 1 1) (thickness 0.15)))
  )
  (fp_text value SSOP-16_LTC4006 (at 0 0) (layer F.Fab)
    (effects (font (size 1 1) (thickness 0.15)))
  )
  (fp_line (start -2.0475 5) (end -2.8475 4.2) (layer F.SilkS) (width 0.15))
  (fp_line (start -2.8475 4.2) (end -2.8475 -5) (layer F.SilkS) (width 0.15))
  (fp_line (start -2.8475 -5) (end 2.8475 -5) (layer F.SilkS) (width 0.15))
  (fp_line (start 2.8475 -5) (end 2.8475 5) (layer F.SilkS) (width 0.15))
  (fp_line (start 2.8475 5) (end -2.0475 5) (layer F.SilkS) (width 0.15))
  (fp_line (start -3 -5.15) (end 3 -5.15) (layer F.CrtYd) (width 0.05))
  (fp_line (start 3 -5.15) (end 3 5.15) (layer F.CrtYd) (width 0.05))
  (fp_line (start 3 5.15) (end -3 5.15) (layer F.CrtYd) (width 0.05))
  (fp_line (start -3 5.15) (end -3 -5.15) (layer F.CrtYd) (width 0.05))
  (pad 16 smd rect (at -2.2225 -3.5) (size 0.25 2) (layers F.Cu F.Paste F.Mask))
  (pad 1 smd rect (at -2.2225 3.5) (size 0.25 2) (layers F.Cu F.Paste F.Mask))
  (pad 15 smd rect (at -1.5875 -3.5) (size 0.25 2) (layers F.Cu F.Paste F.Mask))
  (pad 2 smd rect (at -1.5875 3.5) (size 0.25 2) (layers F.Cu F.Paste F.Mask))
  (pad 14 smd rect (at -0.9525 -3.5) (size 0.25 2) (layers F.Cu F.Paste F.Mask))
  (pad 3 smd rect (at -0.9525 3.5) (size 0.25 2) (layers F.Cu F.Paste F.Mask))
  (pad 13 smd rect (at -0.3175 -3.5) (size 0.25 2) (layers F.Cu F.Paste F.Mask))
  (pad 4 smd rect (at -0.3175 3.5) (size 0.25 2) (layers F.Cu F.Paste F.Mask))
  (pad 12 smd rect (at 0.3175 -3.5) (size 0.25 2) (layers F.Cu F.Paste F.Mask))
  (pad 5 smd rect (at 0.3175 3.5) (size 0.25 2) (layers F.Cu F.Paste F.Mask))
  (pad 11 smd rect (at 0.9525 -3.5) (size 0.25 2) (layers F.Cu F.Paste F.Mask))
  (pad 6 smd rect (at 0.9525 3.5) (size 0.25 2) (layers F.Cu F.Paste F.Mask))
  (pad 10 smd rect (at 1.5875 -3.5) (size 0.25 2) (layers F.Cu F.Paste F.Mask))
  (pad 7 smd rect (at 1.5875 3.5) (size 0.25 2) (layers F.Cu F.Paste F.Mask))
  (pad 9 smd rect (at 2.2225 -3.5) (size 0.25 2) (layers F.Cu F.Paste F.Mask))
  (pad 8 smd rect (at 2.2225 3.5) (size 0.25 2) (layers F.Cu F.Paste F.Mask))
)
