(module L1 (layer F.Cu) (tedit 5BFB5107)
  (descr "Bourns SRR1260 series SMD inductor http://www.bourns.com/docs/product-datasheets/srp2313aa.pdf")
  (tags "Bourns SRR1260 SMD inductor")
  (attr smd)
  (fp_text reference REF** (at 0 -11.9) (layer F.SilkS)
    (effects (font (size 1 1) (thickness 0.15)))
  )
  (fp_text value L1 (at 0 9.31) (layer F.Fab)
    (effects (font (size 1 1) (thickness 0.15)))
  )
  (fp_text user %R (at 0 0) (layer F.Fab)
    (effects (font (size 1 1) (thickness 0.15)))
  )
  (fp_line (start 8.5 -8.5) (end 8.5 8.5) (layer F.Fab) (width 0.1))
  (fp_line (start 8.49 8.53) (end -8.5 8.52) (layer F.Fab) (width 0.1))
  (fp_line (start -8.5 -8.5) (end -8.5 8.5) (layer F.Fab) (width 0.1))
  (fp_line (start 8.5 -8.51) (end -8.5 -8.51) (layer F.Fab) (width 0.1))
  (pad 1 smd roundrect (at -7.55 0) (size 2.3 11.9) (layers F.Cu F.Paste F.Mask) (roundrect_rratio 0.07000000000000001))
  (pad 2 smd roundrect (at 7.55 0) (size 2.3 11.9) (layers F.Cu F.Paste F.Mask) (roundrect_rratio 0.07000000000000001))
  (model ${KISYS3DMOD}/Inductor_SMD.3dshapes/L_Bourns_SRP2313AA.wrl
    (at (xyz 0 0 0))
    (scale (xyz 1 1 1))
    (rotate (xyz 0 0 0))
  )
)
