(module BQ28Z610 (layer F.Cu) (tedit 5C833800)
  (attr smd)
  (fp_text reference U1 (at -3.81 0 90) (layer F.SilkS)
    (effects (font (size 1 1) (thickness 0.15)))
  )
  (fp_text value BQ28Z610 (at 0 3.81) (layer F.Fab)
    (effects (font (size 0.5 0.5) (thickness 0.125)))
  )
  (fp_line (start -1.55 2.85) (end -1.55 -2.85) (layer F.CrtYd) (width 0.05))
  (fp_line (start 1.55 2.85) (end -1.55 2.85) (layer F.CrtYd) (width 0.05))
  (fp_line (start 1.55 -2.85) (end 1.55 2.85) (layer F.CrtYd) (width 0.05))
  (fp_line (start -1.55 -2.85) (end 1.55 -2.85) (layer F.CrtYd) (width 0.05))
  (fp_line (start 1.4 2.675) (end -0.6 2.675) (layer F.SilkS) (width 0.15))
  (fp_line (start 1.4 -2.675) (end 1.4 2.675) (layer F.SilkS) (width 0.15))
  (fp_line (start -1.4 -2.675) (end 1.4 -2.675) (layer F.SilkS) (width 0.15))
  (fp_line (start -1.4 1.875) (end -1.4 -2.675) (layer F.SilkS) (width 0.15))
  (fp_line (start -0.6 2.675) (end -1.4 1.875) (layer F.SilkS) (width 0.15))
  (pad 13 smd rect (at 0.0508 -0.1016) (size 3.3 2.45) (layers F.Cu F.Paste F.Mask))
  (pad 6 smd rect (at 1 1.975) (size 0.2 0.8) (layers F.Cu F.Paste F.Mask))
  (pad 7 smd rect (at 1 -1.975) (size 0.2 0.8) (layers F.Cu F.Paste F.Mask))
  (pad 5 smd rect (at 0.6 1.975) (size 0.2 0.8) (layers F.Cu F.Paste F.Mask))
  (pad 8 smd rect (at 0.6 -1.975) (size 0.2 0.8) (layers F.Cu F.Paste F.Mask))
  (pad 4 smd rect (at 0.2 1.975) (size 0.2 0.8) (layers F.Cu F.Paste F.Mask))
  (pad 9 smd rect (at 0.2 -1.975) (size 0.2 0.8) (layers F.Cu F.Paste F.Mask))
  (pad 3 smd rect (at -0.2 1.975) (size 0.2 0.8) (layers F.Cu F.Paste F.Mask))
  (pad 10 smd rect (at -0.2 -1.975) (size 0.2 0.8) (layers F.Cu F.Paste F.Mask))
  (pad 2 smd rect (at -0.6 1.975) (size 0.2 0.8) (layers F.Cu F.Paste F.Mask))
  (pad 11 smd rect (at -0.6 -1.975) (size 0.2 0.8) (layers F.Cu F.Paste F.Mask))
  (pad 1 smd rect (at -1 1.975) (size 0.2 0.8) (layers F.Cu F.Paste F.Mask))
  (pad 12 smd rect (at -1 -1.975) (size 0.2 0.8) (layers F.Cu F.Paste F.Mask))
)
